﻿"Category","Hombre","Mujer","Indeterminado"
"1.CIFRA SIN  AÑO DE REFERENCIA",2,1,0
"1980",0,1,0
"2007",0,1,0
"2008",4,0,0
"2013",2,0,0
"2014",4,2,0
"2015",4,3,0
"2016",1,2,0
"2017",0,1,0
"2019",3,1,0
"2020",1,0,0
"2021",5,1,0
"2022",13,6,0
"2023",7,5,0