﻿"Category","Hombre","Mujer","Indeterminado"
"1.CIFRA SIN  AÑO DE REFERENCIA",27,7,0
"1974",10,1,0
"1992",1,0,0
"1994",3,0,0
"1995",1,0,0
"1996",0,1,0
"2000",1,1,0
"2001",1,0,0
"2002",0,2,0
"2003",2,0,0
"2004",0,1,0
"2005",1,0,0
"2006",1,1,0
"2007",1,0,0
"2008",2,0,0
"2009",1,3,0
"2010",2,3,0
"2011",1,2,0
"2012",7,2,0
"2013",1,4,0
"2014",3,0,0
"2015",10,4,0
"2016",14,7,0
"2017",18,6,0
"2018",30,15,0
"2019",19,10,0
"2020",28,13,0
"2021",49,14,0
"2022",63,15,0
"2023",79,51,0