﻿"Category","Hombre","Mujer","Indeterminado"
"1.CIFRA SIN  AÑO DE REFERENCIA",1040,257,17
"1968",1,0,0
"1973",1,0,0
"1974",1,0,0
"1978",1,0,0
"1981",0,1,0
"1982",1,0,0
"1985",1,0,0
"1987",1,0,0
"1989",2,0,0
"1991",3,0,0
"1992",1,0,0
"1993",1,1,0
"1996",3,1,0
"1997",1,0,0
"1998",3,0,0
"1999",3,0,0
"2001",5,1,0
"2002",8,2,0
"2003",3,1,0
"2004",8,1,0
"2005",9,3,0
"2006",27,9,0
"2007",52,26,0
"2008",60,16,0
"2009",165,48,0
"2010",891,167,0
"2011",1021,274,0
"2012",867,245,0
"2013",558,183,0
"2014",619,172,1
"2015",295,79,0
"2016",699,213,0
"2017",893,279,0
"2018",696,221,0
"2019",635,209,2
"2020",348,94,0
"2021",175,30,0
"2022",184,36,0
"2023",197,40,0