﻿"Category","Hombre","Mujer","Indeterminado"
"1.CIFRA SIN  AÑO DE REFERENCIA",904,276,18
"1967",1,0,0
"1972",1,0,0
"1973",8,2,0
"1976",1,1,0
"1977",24,3,0
"1979",2,0,0
"1980",7,0,0
"1981",1,0,0
"1982",2,0,0
"1983",0,1,0
"1985",1,0,0
"1987",2,0,0
"1988",2,1,0
"1989",1,0,0
"1991",2,0,0
"1992",5,1,0
"1993",2,1,0
"1994",2,1,0
"1995",3,0,0
"1996",1,0,0
"1997",3,0,0
"1998",5,1,0
"1999",3,2,0
"2000",5,0,0
"2001",11,3,0
"2002",19,9,0
"2003",33,10,0
"2004",28,12,0
"2005",35,13,0
"2006",34,9,0
"2007",56,12,0
"2008",76,17,0
"2009",106,14,0
"2010",204,23,0
"2011",368,61,0
"2012",401,69,0
"2013",633,95,0
"2014",537,73,0
"2015",537,64,0
"2016",700,80,0
"2017",1034,140,0
"2018",1278,159,0
"2019",1828,244,0
"2020",1316,240,1
"2021",1476,403,1
"2022",370,94,0
"2023",83,26,0