﻿"Category","Hombre","Mujer","Indeterminado"
"1.CIFRA SIN  AÑO DE REFERENCIA",17,5,0
"1971",1,0,0
"1980",1,0,0
"1981",1,0,0
"2000",1,0,0
"2003",1,1,0
"2005",1,0,0
"2006",2,0,0
"2007",2,1,0
"2008",1,1,0
"2009",2,1,0
"2010",22,0,0
"2011",13,2,0
"2012",10,4,0
"2013",16,6,0
"2014",14,6,0
"2015",22,6,0
"2016",23,4,0
"2017",20,0,0
"2018",27,10,0
"2019",24,4,0
"2020",10,4,0
"2021",11,3,0
"2022",8,2,0
"2023",10,4,0