﻿"Category","Hombre","Mujer","Indeterminado"
"1.CIFRA SIN  AÑO DE REFERENCIA",96,13,0
"1988",1,0,0
"1995",0,1,0
"2002",0,1,0
"2003",2,0,0
"2005",1,1,0
"2006",3,0,0
"2007",4,1,0
"2008",20,2,0
"2009",30,5,0
"2010",67,2,0
"2011",55,10,0
"2012",39,19,0
"2013",55,15,0
"2014",65,5,0
"2015",71,10,0
"2016",80,10,0
"2017",130,20,0
"2018",101,33,0
"2019",134,43,0
"2020",109,22,0
"2021",145,32,0
"2022",183,29,0
"2023",204,38,0